{
  "type": "minecraft:crafting_shaped",
  "pattern": [
    "SSS",
    "W W",
    "WWW"
  ],
  "key": {
    "S": {
      "item": "habitus:treated_slab",
      "data": 0
    },
    "W": {
      "item": "habitus:treated_planks"
    }
  },
  "result": {
    "item": "habitus:apiary"
  }
}