{
  "type": "minecraft:crafting_shapeless",
  "ingredients": [
    {
      "item": "habitus:bronze_ingot",
      "data": 0
    },
    {
      "item": "habitus:bronze_ingot",
      "data": 0
    },
    {
      "item": "habitus:bronze_ingot",
      "data": 0
    },
    {
      "item": "habitus:bronze_ingot",
      "data": 0
    },
    {
      "item": "habitus:bronze_ingot",
      "data": 0
    },
    {
      "item": "habitus:bronze_ingot",
      "data": 0
    },
    {
      "item": "habitus:bronze_ingot",
      "data": 0
    },
    {
      "item": "habitus:bronze_ingot",
      "data": 0
    },
    {
      "item": "habitus:bronze_ingot",
      "data": 0
    }
  ],
  "result": {
    "item": "habitus:bronze_block",
    "count": 1
  }
}