{
  "type": "minecraft:crafting_shaped",
  "pattern": [
    "WWW",
    "WOW",
    "WWW"
  ],
  "key": {
    "W": {
      "item": "minecraft:planks",
      "data": 1
    },
    "O": {
      "item": "habitus:fireproofing_oil",
      "data": 0
    }
  },
  "result": {
    "item": "habitus:fp_planks_vanilla",
    "data": 1,
    "count": 8
  }
}