{
  "type": "forge:ore_shaped",
  "pattern": [
    "WWW",
    "WOW",
    "WWW"
  ],
  "key": {
    "W": {
      "type": "forge:ore_dict",
      "ore": "plankWood"
    },
    "O": {
      "type": "forge:ore_dict",
      "ore": "oilCreosote"
    }
  },
  "result": {
    "item": "habitus:treated_planks",
    "count": 8
  }
}