{
  "type": "minecraft:crafting_shaped",
  "pattern": [
    "WWW"
  ],
  "key": {
    "W": {
      "item": "habitus:treated_planks"
    }
  },
  "result": {
    "item": "habitus:treated_slab",
    "data": 0,
    "count": 6
  }
}