{
	"credit": "Made with Blockbench",
	"parent": "block/block",
	"textures": {
		"0": "habitus:blocks/bee_analyzer_base",
		"1": "habitus:blocks/bee_analyzer_front",
		"2": "habitus:blocks/bee_analyzer_side",
		"particle": "habitus:blocks/bee_analyzer_base"
	},
	"elements": [
		{
			"from": [3, 3, 1],
			"to": [13, 13, 2],
			"faces": {
				"north": {"uv": [3, 3, 13, 13], "texture": "#1"},
				"east": {"uv": [0, 0, 16, 16], "texture": "#2"},
				"south": {"uv": [0, 0, 15, 16], "texture": "#0"},
				"west": {"uv": [0, 0, 16, 16], "texture": "#2"},
				"up": {"uv": [0, 0, 15, 16], "texture": "#0"},
				"down": {"uv": [0, 0, 15, 16], "texture": "#0"}
			}
		},
		{
			"from": [13, 0, 0],
			"to": [16, 16, 1],
			"faces": {
				"north": {"uv": [0, 0, 3, 16], "texture": "#1"},
				"east": {"uv": [15, 0, 16, 16], "texture": "#2"},
				"south": {"uv": [0, 0, 2, 16], "texture": "#missing"},
				"west": {"uv": [0, 0, 1, 16], "texture": "#1"},
				"up": {"uv": [13, 0, 16, 1], "texture": "#0"},
				"down": {"uv": [13, 15, 16, 16], "texture": "#0"}
			}
		},
		{
			"from": [0, 0, 0],
			"to": [3, 16, 1],
			"faces": {
				"north": {"uv": [13, 0, 16, 16], "texture": "#1"},
				"east": {"uv": [13, 0, 14, 16], "texture": "#1"},
				"south": {"uv": [0, 0, 2, 16], "texture": "#missing"},
				"west": {"uv": [0, 0, 1, 16], "texture": "#2"},
				"up": {"uv": [0, 0, 3, 1], "texture": "#0"},
				"down": {"uv": [0, 15, 3, 16], "texture": "#0"}
			}
		},
		{
			"from": [3, 0, 0],
			"to": [13, 3, 1],
			"faces": {
				"north": {"uv": [3, 13, 13, 16], "texture": "#1"},
				"east": {"uv": [0, 0, 1, 2], "texture": "#missing"},
				"south": {"uv": [0, 0, 10, 2], "texture": "#missing"},
				"west": {"uv": [0, 0, 1, 2], "texture": "#missing"},
				"up": {"uv": [3, 13, 13, 14], "texture": "#1"},
				"down": {"uv": [3, 15, 13, 16], "texture": "#0"}
			}
		},
		{
			"from": [0, 13, 3],
			"to": [1, 16, 13],
			"faces": {
				"north": {"uv": [0, 0, 1, 2], "texture": "#missing"},
				"east": {"uv": [0, 0, 10, 2], "texture": "#missing"},
				"south": {"uv": [0, 0, 1, 2], "texture": "#missing"},
				"west": {"uv": [3, 0, 13, 2.99937], "texture": "#2"},
				"up": {"uv": [0, 3, 1, 13], "texture": "#0"},
				"down": {"uv": [3, 2, 13, 3], "rotation": 90, "texture": "#1"}
			}
		},
		{
			"from": [0, 0, 1],
			"to": [16, 3, 16],
			"faces": {
				"north": {"uv": [0, 0, 16, 3], "texture": "#missing"},
				"east": {"uv": [0, 13, 15, 16], "texture": "#2"},
				"south": {"uv": [0, 13, 16, 16], "texture": "#0"},
				"west": {"uv": [1, 13, 16, 16], "texture": "#2"},
				"up": {"uv": [0, 1, 16, 16], "texture": "#0"},
				"down": {"uv": [0, 0, 16, 15], "texture": "#0"}
			}
		},
		{
			"from": [0, 3, 1],
			"to": [3, 16, 3],
			"faces": {
				"north": {"uv": [0, 0, 3, 13], "texture": "#missing"},
				"east": {"uv": [0, 0, 2, 13], "texture": "#missing"},
				"south": {"uv": [0, 0, 3, 13], "texture": "#1"},
				"west": {"uv": [1, 0, 3, 13], "texture": "#2"},
				"up": {"uv": [0, 1, 3, 3], "texture": "#0"},
				"down": {"uv": [0, 0, 3, 2], "texture": "#missing"}
			}
		},
		{
			"from": [0, 3, 13],
			"to": [3, 16, 16],
			"faces": {
				"north": {"uv": [13, 0, 16, 13], "texture": "#1"},
				"east": {"uv": [0, 0, 3, 13], "texture": "#missing"},
				"south": {"uv": [0, 0, 3, 13], "texture": "#0"},
				"west": {"uv": [13, 0, 16, 13], "texture": "#2"},
				"up": {"uv": [0, 13, 3, 16], "texture": "#0"},
				"down": {"uv": [0, 0, 3, 3], "texture": "#missing"}
			}
		},
		{
			"from": [1, 3, 3],
			"to": [2, 13, 13],
			"faces": {
				"north": {"uv": [0, 0, 16, 16], "texture": "#2"},
				"east": {"uv": [0, 0, 15, 16], "texture": "#0"},
				"south": {"uv": [0, 0, 16, 16], "texture": "#2"},
				"west": {"uv": [3, 3, 13, 13], "texture": "#2"},
				"up": {"uv": [0, 0, 15, 16], "rotation": 270, "texture": "#0"},
				"down": {"uv": [0, 0, 15, 16], "rotation": 90, "texture": "#0"}
			}
		},
		{
			"from": [3, 13, 0],
			"to": [13, 16, 1],
			"faces": {
				"north": {"uv": [3, 0, 13, 2.99937], "texture": "#1"},
				"east": {"uv": [0, 0, 1, 2], "texture": "#missing"},
				"south": {"uv": [0, 0, 10, 2], "texture": "#missing"},
				"west": {"uv": [0, 0, 1, 2], "texture": "#missing"},
				"up": {"uv": [3, 0, 13, 1], "texture": "#0"},
				"down": {"uv": [3, 2, 13, 3], "texture": "#1"}
			}
		},
		{
			"from": [13, 3, 13],
			"to": [16, 16, 16],
			"faces": {
				"north": {"uv": [0, 0, 3, 13], "texture": "#1"},
				"east": {"uv": [0, 0, 3, 13], "texture": "#2"},
				"south": {"uv": [13, 0, 16, 13], "texture": "#0"},
				"west": {"uv": [0, 0, 2, 13], "texture": "#missing"},
				"up": {"uv": [13, 13, 16, 16], "texture": "#0"},
				"down": {"uv": [0, 0, 3, 2], "rotation": 180, "texture": "#missing"}
			}
		},
		{
			"from": [13, 3, 1],
			"to": [16, 16, 3],
			"faces": {
				"north": {"uv": [0, 0, 3, 13], "texture": "#missing"},
				"east": {"uv": [13, 0, 15, 13], "texture": "#2"},
				"south": {"uv": [13, 0, 16, 13], "texture": "#1"},
				"west": {"uv": [0, 0, 3, 13], "texture": "#missing"},
				"up": {"uv": [13, 1, 16, 3], "texture": "#0"},
				"down": {"uv": [0, 0, 3, 3], "rotation": 180, "texture": "#missing"}
			}
		},
		{
			"from": [15, 13, 3],
			"to": [16, 16, 13],
			"faces": {
				"north": {"uv": [0, 0, 1, 2], "texture": "#missing"},
				"east": {"uv": [3, 0, 13, 2.99937], "texture": "#2"},
				"south": {"uv": [0, 0, 1, 2], "texture": "#missing"},
				"west": {"uv": [0, 0, 10, 2], "texture": "#missing"},
				"up": {"uv": [15, 3, 16, 13], "texture": "#0"},
				"down": {"uv": [3, 2, 13, 3], "rotation": 270, "texture": "#1"}
			}
		},
		{
			"from": [14, 3, 3],
			"to": [15, 13, 13],
			"faces": {
				"north": {"uv": [0, 0, 16, 16], "texture": "#2"},
				"east": {"uv": [3, 3, 13, 13], "texture": "#2"},
				"south": {"uv": [0, 0, 16, 16], "texture": "#2"},
				"west": {"uv": [0, 0, 15, 16], "texture": "#0"},
				"up": {"uv": [0, 0, 15, 16], "rotation": 90, "texture": "#0"},
				"down": {"uv": [0, 0, 15, 16], "rotation": 270, "texture": "#0"}
			}
		},
		{
			"from": [3, 3, 15],
			"to": [13, 16, 16],
			"faces": {
				"north": {"uv": [0, 0, 10, 13], "texture": "#missing"},
				"east": {"uv": [0, 0, 1, 13], "texture": "#missing"},
				"south": {"uv": [3, 0, 13, 13], "texture": "#0"},
				"west": {"uv": [0, 0, 1, 13], "texture": "#missing"},
				"up": {"uv": [3, 15, 13, 16], "texture": "#0"},
				"down": {"uv": [0, 0, 10, 1], "texture": "#missing"}
			}
		},
		{
			"from": [3, 15, 1],
			"to": [13, 16, 3],
			"faces": {
				"north": {"uv": [0, 0, 10, 1], "texture": "#missing"},
				"east": {"uv": [0, 0, 2, 1], "texture": "#missing"},
				"south": {"uv": [0, 0, 10, 1], "texture": "#missing"},
				"west": {"uv": [0, 0, 2, 1], "texture": "#missing"},
				"up": {"uv": [3, 1, 13, 3], "texture": "#0"},
				"down": {"uv": [0, 0, 10, 2], "texture": "#missing"}
			}
		},
		{
			"from": [3, 15, 13],
			"to": [13, 16, 15],
			"faces": {
				"north": {"uv": [0, 0, 10, 1], "texture": "#missing"},
				"east": {"uv": [0, 0, 2, 1], "texture": "#missing"},
				"south": {"uv": [0, 0, 10, 1], "texture": "#missing"},
				"west": {"uv": [0, 0, 2, 1], "texture": "#missing"},
				"up": {"uv": [3, 13, 13, 15], "texture": "#0"},
				"down": {"uv": [0, 0, 10, 2], "texture": "#missing"}
			}
		},
		{
			"from": [1, 15, 3],
			"to": [15, 16, 13],
			"faces": {
				"north": {"uv": [0, 0, 14, 1], "texture": "#missing"},
				"east": {"uv": [0, 0, 10, 1], "texture": "#missing"},
				"south": {"uv": [0, 0, 14, 1], "texture": "#missing"},
				"west": {"uv": [0, 0, 10, 1], "texture": "#missing"},
				"up": {"uv": [1, 3, 15, 13], "texture": "#0"},
				"down": {"uv": [0, 0, 14, 10], "texture": "#missing"}
			}
		}
	]
}