{
  "forge_marker": 1,
  "defaults": {
    "textures": {
      "end": "habitus:blocks/cherry_log_top_white",
      "side": "habitus:blocks/cherry_log"
    }
  },
  "variants": {
    "axis=y": {
      "model": "cube_column"
    },
    "axis=z": {
      "model": "cube_column",
      "x": 90
    },
    "axis=x": {
      "model": "cube_column",
      "y": 90,
      "x": 90
    },
    "axis=none": {
      "model": "cube_column"
    },
    "inventory": {
      "model": "cube_column"
    }
  }
}