{
    "forge_marker": 1,
    "defaults": {
        "textures": {
            "texture": "habitus:blocks/cherry_planks"
        }
    },
    "variants": {
        "facing": {
            "south": {},
            "west": {"y": 90},
            "north": {"y": 180},
            "east": {"y": 270}
        },
        "in_wall": {
            "true": {},
            "false": {}
        },
        "open": {
            "true": { "model": "oak_fence_gate_open", "uvlock": "true"},
            "false": {"model": "oak_fence_gate_closed", "uvlock": "true"}
        },
        "powered": {
            "true": {},
            "false": {}
        },
        "inventory": {"model": "oak_fence_gate_closed"}
    }
}