{
  "forge_marker": 1,
  "defaults": {
    "textures": {
      "all": "habitus:blocks/copper_ore"
    }
  },
  "variants": {
    "normal": {
      "model": "cube_all"
    },
    "inventory": {
      "model": "cube_all"
    }
  }
}